{
    "current_page": 1,
    "data": [{
        "id": 1,
        "name": "Sentricon Accounts",
        "pay_structure_type_id": 1,
        "order": 1,
        "created_at": "2021-08-05T15:49:45.000000Z",
        "updated_at": "2021-09-21T18:08:32.000000Z"
    }, {
        "id": 2,
        "name": "Protection Plan Accounts",
        "pay_structure_type_id": 1,
        "order": 1,
        "created_at": "2021-08-05T15:49:45.000000Z",
        "updated_at": "2021-09-21T18:08:32.000000Z"
    }, {
        "id": 3,
        "name": "Mosquito Accounts",
        "pay_structure_type_id": 2,
        "order": 1,
        "created_at": "2021-08-05T15:49:45.000000Z",
        "updated_at": "2021-09-21T18:08:33.000000Z"
    }, {
        "id": 4,
        "name": "Other Accounts",
        "pay_structure_type_id": 1,
        "order": 1,
        "created_at": "2021-08-05T15:49:45.000000Z",
        "updated_at": "2021-09-21T18:08:33.000000Z"
    }, {
        "id": 5,
        "name": "Recruits",
        "pay_structure_type_id": 6,
        "order": 1,
        "created_at": "2021-09-07T17:21:36.000000Z",
        "updated_at": "2021-09-21T18:08:33.000000Z"
    }, {
        "id": 6,
        "name": "Team",
        "pay_structure_type_id": 5,
        "order": 1,
        "created_at": "2021-09-07T17:21:36.000000Z",
        "updated_at": "2021-09-21T18:08:33.000000Z"
    }, {
        "id": 7,
        "name": "Sentricon Accounts",
        "pay_structure_type_id": 2,
        "order": 2,
        "created_at": "2021-09-21T18:08:32.000000Z",
        "updated_at": "2021-09-21T18:08:32.000000Z"
    }, {
        "id": 8,
        "name": "Protection Plan Accounts",
        "pay_structure_type_id": 2,
        "order": 2,
        "created_at": "2021-09-21T18:08:32.000000Z",
        "updated_at": "2021-09-21T18:08:32.000000Z"
    }, {
        "id": 9,
        "name": "Protection Plan Accounts",
        "pay_structure_type_id": 4,
        "order": 3,
        "created_at": "2021-09-21T18:08:33.000000Z",
        "updated_at": "2021-09-21T18:08:33.000000Z"
    }, {
        "id": 10,
        "name": "Other Accounts",
        "pay_structure_type_id": 2,
        "order": 2,
        "created_at": "2021-09-21T18:08:33.000000Z",
        "updated_at": "2021-09-21T18:08:33.000000Z"
    }, {
        "id": 11,
        "name": "Protection Plan Accounts",
        "pay_structure_type_id": 3,
        "order": 2,
        "created_at": "2021-11-16T15:01:47.000000Z",
        "updated_at": "2021-11-16T15:01:47.000000Z"
    }, {
        "id": 12,
        "name": "Mosquito Accounts",
        "pay_structure_type_id": 3,
        "order": 1,
        "created_at": "2021-11-16T15:01:47.000000Z",
        "updated_at": "2021-11-16T15:01:47.000000Z"
    }, {
        "id": 13,
        "name": "Sentricon Accounts",
        "pay_structure_type_id": 3,
        "order": 2,
        "created_at": "2021-11-16T15:01:47.000000Z",
        "updated_at": "2021-11-16T15:01:47.000000Z"
    }, {
        "id": 14,
        "name": "Other Accounts",
        "pay_structure_type_id": 3,
        "order": 2,
        "created_at": "2021-11-16T15:01:47.000000Z",
        "updated_at": "2021-11-16T15:01:47.000000Z"
    }, {
        "id": 15,
        "name": "Team Final",
        "pay_structure_type_id": 7,
        "order": 1,
        "created_at": "2021-11-16T15:01:47.000000Z",
        "updated_at": "2021-11-30T14:45:50.000000Z"
    }],
    "first_page_url": "https:\/\/foxpay.fpcl.fox-pest.com?page=1",
    "from": 1,
    "last_page": 2,
    "last_page_url": "https:\/\/foxpay.fpcl.fox-pest.com?page=2",
    "links": [{
        "url": null,
        "label": "&laquo; Previous",
        "active": false
    }, {
        "url": "https:\/\/foxpay.fpcl.fox-pest.com?page=1",
        "label": "1",
        "active": true
    }, {
        "url": "https:\/\/foxpay.fpcl.fox-pest.com?page=2",
        "label": "2",
        "active": false
    }, {
        "url": "https:\/\/foxpay.fpcl.fox-pest.com?page=2",
        "label": "Next &raquo;",
        "active": false
    }],
    "next_page_url": "https:\/\/foxpay.fpcl.fox-pest.com?page=2",
    "path": "https:\/\/foxpay.fpcl.fox-pest.com",
    "per_page": 15,
    "prev_page_url": null,
    "to": 15,
    "total": 17
}
